\relax 
\providecommand\hyper@newdestlabel[2]{}
\providecommand\HyperFirstAtBeginDocument{\AtBeginDocument}
\HyperFirstAtBeginDocument{\ifx\hyper@anchor\@undefined
\global\let\oldcontentsline\contentsline
\gdef\contentsline#1#2#3#4{\oldcontentsline{#1}{#2}{#3}}
\global\let\oldnewlabel\newlabel
\gdef\newlabel#1#2{\newlabelxx{#1}#2}
\gdef\newlabelxx#1#2#3#4#5#6{\oldnewlabel{#1}{{#2}{#3}}}
\AtEndDocument{\ifx\hyper@anchor\@undefined
\let\contentsline\oldcontentsline
\let\newlabel\oldnewlabel
\fi}
\fi}
\global\let\hyper@last\relax 
\gdef\HyperFirstAtBeginDocument#1{#1}
\providecommand\HyField@AuxAddToFields[1]{}
\providecommand\HyField@AuxAddToCoFields[2]{}
\@writefile{toc}{\contentsline {section}{\numberline {1}Einleitung}{1}{section.1}}
\@writefile{toc}{\contentsline {section}{\numberline {2}Aufgabenstellung und Motivation}{2}{section.2}}
\@writefile{toc}{\contentsline {section}{\numberline {3}Ideenfindung}{3}{section.3}}
\@writefile{toc}{\contentsline {subsection}{\numberline {3.1}Erste \IeC {\"U}berlegungen}{3}{subsection.3.1}}
\@writefile{lof}{\contentsline {figure}{\numberline {1}{\ignorespaces Darstellung Ist-Zustand im Restaurant}}{3}{figure.1}}
\newlabel{fig:image0}{{1}{3}{Darstellung Ist-Zustand im Restaurant}{figure.1}{}}
\@writefile{lof}{\contentsline {figure}{\numberline {2}{\ignorespaces Darstellung Soll-Zustand im Restaurant}}{4}{figure.2}}
\newlabel{fig:image1}{{2}{4}{Darstellung Soll-Zustand im Restaurant}{figure.2}{}}
\@writefile{toc}{\contentsline {subsection}{\numberline {3.2}Konkretere Ausf\IeC {\"u}hrung}{5}{subsection.3.2}}
\@writefile{lof}{\contentsline {figure}{\numberline {3}{\ignorespaces Geofencing in Berlin}}{5}{figure.3}}
\newlabel{fig:image15}{{3}{5}{Geofencing in Berlin}{figure.3}{}}
\citation{bib08}
\citation{bib09}
\citation{bib08}
\citation{bib09}
\@writefile{lof}{\contentsline {figure}{\numberline {4}{\ignorespaces Kombination aus Pizza-Ofen und Automat}}{6}{figure.4}}
\newlabel{fig:image2}{{4}{6}{Kombination aus Pizza-Ofen und Automat}{figure.4}{}}
\citation{bib010}
\@writefile{lof}{\contentsline {figure}{\numberline {5}{\ignorespaces Beispielhafte Darstellung Pizza-Automat}}{7}{figure.5}}
\newlabel{fig:image3}{{5}{7}{Beispielhafte Darstellung Pizza-Automat}{figure.5}{}}
\citation{bib02}
\@writefile{lof}{\contentsline {figure}{\numberline {6}{\ignorespaces Beispielhafte Darstellung Pizza-Stra\IeC {\ss }e}}{8}{figure.6}}
\newlabel{fig:image4}{{6}{8}{Beispielhafte Darstellung Pizza-Straße}{figure.6}{}}
\citation{bib06}
\@writefile{lof}{\contentsline {figure}{\numberline {7}{\ignorespaces Beispielhafte Darstellung Pizza-Wagen}}{9}{figure.7}}
\newlabel{fig:image5}{{7}{9}{Beispielhafte Darstellung Pizza-Wagen}{figure.7}{}}
\citation{bib10}
\@writefile{toc}{\contentsline {section}{\numberline {4}Konkurrenzanalyse}{11}{section.4}}
\@writefile{toc}{\contentsline {subsection}{\numberline {4.1}Wie arbeitet die Konkurrenz?}{11}{subsection.4.1}}
\citation{bib0815}
\@writefile{toc}{\contentsline {subsection}{\numberline {4.2}Welche technischen Innovationen existieren am Lieferservicemarkt?}{12}{subsection.4.2}}
\@writefile{lof}{\contentsline {figure}{\numberline {8}{\ignorespaces Auslieferung von D\IeC {\"o}nern per Drohne}}{13}{figure.8}}
\newlabel{fig:image4}{{8}{13}{Auslieferung von Dönern per Drohne}{figure.8}{}}
\@writefile{toc}{\contentsline {subsection}{\numberline {4.3}Schlussfolgerung f\IeC {\"u}r die Pizza Box}{13}{subsection.4.3}}
\@writefile{toc}{\contentsline {section}{\numberline {5}Darstellung eines Anwendungsszenarios}{14}{section.5}}
\@writefile{toc}{\contentsline {section}{\numberline {6}Anforderungsanalyse}{15}{section.6}}
\@writefile{toc}{\contentsline {subsection}{\numberline {6.1}Anforderungen an das Flottentelematik-System}{15}{subsection.6.1}}
\@writefile{lot}{\contentsline {table}{\numberline {1}{\ignorespaces \IeC {\"U}bersicht der Anforderungen an das Flottentelematik-System}}{16}{table.1}}
\newlabel{tab:tabelle0}{{1}{16}{Übersicht der Anforderungen an das Flottentelematik-System}{table.1}{}}
\@writefile{toc}{\contentsline {subsection}{\numberline {6.2}Anforderungen an die Kommunikation des Flottentelematik-Systems}{17}{subsection.6.2}}
\@writefile{lot}{\contentsline {table}{\numberline {2}{\ignorespaces \IeC {\"U}bersicht der Anforderungen an die Kommunikation des Flottentelematik-Systems}}{18}{table.2}}
\newlabel{tab:tabelle1}{{2}{18}{Übersicht der Anforderungen an die Kommunikation des Flottentelematik-Systems}{table.2}{}}
\@writefile{toc}{\contentsline {subsection}{\numberline {6.3}Anforderungen an den Bestellvorgang}{19}{subsection.6.3}}
\@writefile{lot}{\contentsline {table}{\numberline {3}{\ignorespaces \IeC {\"U}bersicht der Anforderungen an den Bestellvorgang}}{19}{table.3}}
\newlabel{tab:tabelle2}{{3}{19}{Übersicht der Anforderungen an den Bestellvorgang}{table.3}{}}
\@writefile{toc}{\newpage }
\citation{bib111}
\@writefile{toc}{\contentsline {section}{\numberline {7}Marktanalyse und Entscheidungsfindung}{21}{section.7}}
\@writefile{toc}{\contentsline {subsection}{\numberline {7.1}Vergleich der Marktteilnehmer}{21}{subsection.7.1}}
\@writefile{lot}{\contentsline {table}{\numberline {4}{\ignorespaces \IeC {\"U}bersicht der Anbieter f\IeC {\"u}r Flotten-Telematik-Systeme \cite  {bib111}}}{21}{table.4}}
\newlabel{tab:tabelle4}{{4}{21}{Übersicht der Anbieter für Flotten-Telematik-Systeme \cite {bib111}}{table.4}{}}
\citation{bib11}
\citation{bib12}
\citation{bib13}
\citation{bib14}
\@writefile{toc}{\contentsline {subsection}{\numberline {7.2}Kosten-Nutzen-Analyse}{22}{subsection.7.2}}
\@writefile{lot}{\contentsline {table}{\numberline {5}{\ignorespaces \IeC {\"U}bersicht der Informationen von TomTom Telematics \cite  {bib11} \cite  {bib12} \cite  {bib13}}}{22}{table.5}}
\newlabel{tab:tabelle5}{{5}{22}{Übersicht der Informationen von TomTom Telematics \cite {bib11} \cite {bib12} \cite {bib13}}{table.5}{}}
\@writefile{lot}{\contentsline {table}{\numberline {6}{\ignorespaces \IeC {\"U}bersicht der Informationen von Masternaut \cite  {bib14}}}{22}{table.6}}
\newlabel{tab:tabelle6}{{6}{22}{Übersicht der Informationen von Masternaut \cite {bib14}}{table.6}{}}
\@writefile{lot}{\contentsline {table}{\numberline {7}{\ignorespaces \IeC {\"U}bersicht der Informationen der eigenen Konstruktion mit Arduino}}{23}{table.7}}
\newlabel{tab:tabelle6}{{7}{23}{Übersicht der Informationen der eigenen Konstruktion mit Arduino}{table.7}{}}
\@writefile{toc}{\contentsline {subsection}{\numberline {7.3}Ausarbeitung eines Bewertungsschemas}{23}{subsection.7.3}}
\@writefile{lof}{\contentsline {figure}{\numberline {9}{\ignorespaces Bewertungsschema der Produkte}}{24}{figure.9}}
\newlabel{fig:bewertung}{{9}{24}{Bewertungsschema der Produkte}{figure.9}{}}
\@writefile{toc}{\contentsline {section}{\numberline {8}Innovation durch telematische Systeme}{25}{section.8}}
\@writefile{lof}{\contentsline {figure}{\numberline {10}{\ignorespaces Beispielhafte Darstellung des Telematik-Systems}}{27}{figure.10}}
\newlabel{fig:telematiksystem}{{10}{27}{Beispielhafte Darstellung des Telematik-Systems}{figure.10}{}}
\citation{bib03}
\citation{bib04}
\citation{bib05}
\@writefile{toc}{\contentsline {section}{\numberline {9}Wirtschaftlichkeitsanalyse}{29}{section.9}}
\@writefile{lot}{\contentsline {table}{\numberline {8}{\ignorespaces \IeC {\"U}bersicht der Materialkosten}}{29}{table.8}}
\newlabel{tab:tabelle4}{{8}{29}{Übersicht der Materialkosten}{table.8}{}}
\@writefile{lot}{\contentsline {table}{\numberline {9}{\ignorespaces \IeC {\"U}bersicht der Selbstkosten}}{31}{table.9}}
\newlabel{tab:tabelle4}{{9}{31}{Übersicht der Selbstkosten}{table.9}{}}
\@writefile{toc}{\contentsline {section}{\numberline {10}Fazit}{33}{section.10}}
\bibcite{bib08}{1}
\bibcite{bib09}{2}
\bibcite{bib010}{3}
\bibcite{bib02}{4}
\bibcite{bib06}{5}
\bibcite{bib10}{6}
\bibcite{bib0815}{7}
\bibcite{bib111}{8}
\bibcite{bib11}{9}
\bibcite{bib12}{10}
\bibcite{bib13}{11}
\bibcite{bib14}{12}
\@writefile{toc}{\contentsline {section}{Quellenverzeichnis}{34}{section*.3}}
\bibcite{bib03}{13}
\bibcite{bib04}{14}
\bibcite{bib05}{15}
\@writefile{toc}{\contentsline {section}{Abbildungsverzeichnis}{36}{section*.3}}
\citation{bib111}
\citation{bib11}
\citation{bib12}
\citation{bib13}
\citation{bib14}
\@writefile{toc}{\contentsline {section}{Tabellenverzeichnis}{37}{section*.4}}
