\BOOKMARK [1][-]{section.1}{Einleitung}{}% 1
\BOOKMARK [1][-]{section.2}{Aufgabenstellung und Motivation}{}% 2
\BOOKMARK [1][-]{section.3}{Ideenfindung}{}% 3
\BOOKMARK [2][-]{subsection.3.1}{Erste \334berlegungen}{section.3}% 4
\BOOKMARK [2][-]{subsection.3.2}{Konkretere Ausf\374hrung}{section.3}% 5
\BOOKMARK [1][-]{section.4}{Konkurrenzanalyse}{}% 6
\BOOKMARK [2][-]{subsection.4.1}{Wie arbeitet die Konkurrenz?}{section.4}% 7
\BOOKMARK [2][-]{subsection.4.2}{Welche technischen Innovationen existieren am Lieferservicemarkt?}{section.4}% 8
\BOOKMARK [2][-]{subsection.4.3}{Schlussfolgerung f\374r die Pizza Box}{section.4}% 9
\BOOKMARK [1][-]{section.5}{Darstellung eines Anwendungsszenarios}{}% 10
\BOOKMARK [1][-]{section.6}{Anforderungsanalyse}{}% 11
\BOOKMARK [2][-]{subsection.6.1}{Anforderungen an das Flottentelematik-System}{section.6}% 12
\BOOKMARK [2][-]{subsection.6.2}{Anforderungen an die Kommunikation des Flottentelematik-Systems}{section.6}% 13
\BOOKMARK [2][-]{subsection.6.3}{Anforderungen an den Bestellvorgang}{section.6}% 14
\BOOKMARK [1][-]{section.7}{Marktanalyse und Entscheidungsfindung}{}% 15
\BOOKMARK [2][-]{subsection.7.1}{Vergleich der Marktteilnehmer}{section.7}% 16
\BOOKMARK [2][-]{subsection.7.2}{Kosten-Nutzen-Analyse}{section.7}% 17
\BOOKMARK [2][-]{subsection.7.3}{Ausarbeitung eines Bewertungsschemas}{section.7}% 18
\BOOKMARK [1][-]{section.8}{Innovation durch telematische Systeme}{}% 19
\BOOKMARK [1][-]{section.9}{Wirtschaftlichkeitsanalyse}{}% 20
\BOOKMARK [1][-]{section.10}{Fazit}{}% 21
\BOOKMARK [1][-]{section*.3}{Quellenverzeichnis}{}% 22
\BOOKMARK [1][-]{section*.3}{Abbildungsverzeichnis}{}% 23
\BOOKMARK [1][-]{section*.4}{Tabellenverzeichnis}{}% 24
