\contentsline {figure}{\numberline {1}{\ignorespaces Darstellung Ist-Zustand im Restaurant}}{3}{figure.1}
\contentsline {figure}{\numberline {2}{\ignorespaces Darstellung Soll-Zustand im Restaurant}}{4}{figure.2}
\contentsline {figure}{\numberline {3}{\ignorespaces Geofencing in Berlin}}{5}{figure.3}
\contentsline {figure}{\numberline {4}{\ignorespaces Kombination aus Pizza-Ofen und Automat}}{6}{figure.4}
\contentsline {figure}{\numberline {5}{\ignorespaces Beispielhafte Darstellung Pizza-Automat}}{7}{figure.5}
\contentsline {figure}{\numberline {6}{\ignorespaces Beispielhafte Darstellung Pizza-Stra\IeC {\ss }e}}{8}{figure.6}
\contentsline {figure}{\numberline {7}{\ignorespaces Beispielhafte Darstellung Pizza-Wagen}}{9}{figure.7}
\contentsline {figure}{\numberline {8}{\ignorespaces Auslieferung von D\IeC {\"o}nern per Drohne}}{13}{figure.8}
\contentsline {figure}{\numberline {9}{\ignorespaces Bewertungsschema der Produkte}}{24}{figure.9}
\contentsline {figure}{\numberline {10}{\ignorespaces Beispielhafte Darstellung des Telematik-Systems}}{27}{figure.10}
